{
    "created": "2019-05-24T19:56:03.460541Z",
    "digest": "3877ea85aa7be735633129756a16472e89c68b369ba8022b051acbda0a10b14c",
    "id": "fb108c3f-5e3d-4363-a820-236f32a2fb96",
    "inputs": [
        {
            "name": "input dataset"
        }
    ], 
    "outputs": [
        {
            "data": "steps.15.produce",
            "name": "output predictions"
        }
    ],
    "pipeline_rank": 1,
    "schema": "https://metadata.datadrivendiscovery.org/schemas/v0/pipeline.json",
    "steps": [
        {
            "arguments": {
                "inputs": {
                    "data": "inputs.0",
                    "type": "CONTAINER"
                }
            },
            "outputs": [
                {
                    "id": "produce"
                }
            ],
            "primitive": {
                "id": "f31f8c1f-d1c5-43e5-a4b2-2ae4a761ef2e",
                "name": "Denormalize datasets",
                "python_path": "d3m.primitives.data_transformation.denormalize.Common",
                "version": "0.2.0"
            },
            "type": "PRIMITIVE"
        },
        {
            "arguments": {
                "inputs": {
                    "data": "steps.0.produce",
                    "type": "CONTAINER"
                }
            },
            "outputs": [
                {
                    "id": "produce"
                }
            ],
            "primitive": { 
                "id": "4b42ce1e-9b98-4a25-b68e-fad13311eb65",
                "name": "Extract a DataFrame from a Dataset",
                "python_path": "d3m.primitives.data_transformation.dataset_to_dataframe.Common",
                "version": "0.3.0"
            },
            "type": "PRIMITIVE"
        },
        {
            "type": "PRIMITIVE",
            "primitive": {
                "id": "4503a4c6-42f7-45a1-a1d4-ed69699cf5e1",
                "version": "0.2.0",
                "python_path": "d3m.primitives.data_transformation.extract_columns_by_semantic_types.DataFrameCommon",
                "name": "Extracts columns by semantic type"
            },
            "arguments": {
                "inputs": {
                    "type": "CONTAINER",
                    "data": "steps.1.produce"
                }
            },
            "outputs": [
                {
                    "id": "produce"
                }
            ],
            "hyperparams": {
                "semantic_types": {
                    "type": "VALUE",
                    "data": [
                        "https://metadata.datadrivendiscovery.org/types/TrueTarget"
                    ]
                }
            }
        },
        {
            "arguments": {
                "inputs": {
                    "data": "inputs.0",
                    "type": "CONTAINER"
                }
            },
            "hyperparams": {
                "read_as_mono": {
                    "data": true,
                    "type": "VALUE"
                },
                "resampling_rate": {
                    "data": 1.0,
                    "type": "VALUE"
                }
            },
            "outputs": [
                {
                    "id": "produce"
                }
            ],
            "primitive": {        
                "id": "503e69a1-5fc4-4f14-912a-4b564cb1b171",
                "name": "CSV Reader",
                "python_path": "d3m.primitives.data_preprocessing.csv_reader.CSVReader",
                "version": "0.1.4"
            },
            "type": "PRIMITIVE"
        },
        {
            "arguments": {
                "inputs": {
                    "data": "steps.3.produce",
                    "type": "CONTAINER"
                }
            },
            "outputs": [
                {
                    "id": "produce"
                }
            ],
            "primitive": { 
                "id": "35afd4db-e11d-4e2d-a780-9e123b752bd7",
                "name": "Channel Averager",
                "python_path": "d3m.primitives.data_preprocessing.channel_averager.ChannelAverager",
                "version": "0.1.4"
            },
            "type": "PRIMITIVE"
        },
        {
            "arguments": {
                "inputs": {
                    "data": "steps.4.produce",
                    "type": "CONTAINER"
                }
            },
            "hyperparams": {
                "level": {
                    "data": 0.0001,
                    "type": "VALUE"
                },
                "reseed": {
                    "data": true,
                    "type": "VALUE"
                }
            },
            "outputs": [
                {
                    "id": "produce"
                }
            ],
            "primitive": { 
                "id": "1ea935ec-e767-4a18-bbd5-b5f66855f4f3",
                "name": "Signal Dithering",
                "python_path": "d3m.primitives.data_preprocessing.signal_dither.SignalDither",
                "version": "0.1.4"
            },
            "type": "PRIMITIVE"
        },
        {
            "arguments": {
                "inputs": {
                    "data": "steps.5.produce",
                    "type": "CONTAINER"
                }
            },
            "hyperparams": {
                "flatten_output": {
                    "data": false,
                    "type": "VALUE"
                },
                "frame_length_s": {
                    "data": 50,
                    "type": "VALUE"
                },
                "frame_shift_s": {
                    "data": 0.4,
                    "type": "VALUE"
                }
            },
            "outputs": [
                {
                    "id": "produce"
                }
            ],
            "primitive": { 
                "id": "4d7160ef-ca70-4150-b513-36b90817ba45",
                "name": "Signal Framing",
                "python_path": "d3m.primitives.time_series_segmentation.signal_framer.SignalFramer",
                "version": "0.1.4"
            },
            "type": "PRIMITIVE"
        },
        {
            "arguments": {
                "inputs": {
                    "data": "steps.6.produce",
                    "type": "CONTAINER"
                }
            },
            "hyperparams": {
                "cep_lifter": {
                    "data": 22.0,
                    "type": "VALUE"
                },
                "frame_mean_norm": {
                    "data": false,
                    "type": "VALUE"
                },
                "nfft": {
                    "data": null,
                    "type": "VALUE"
                },
                "num_ceps": {
                    "data": 3,
                    "type": "VALUE"
                },
                "num_chans": {
                    "data": 1,
                    "type": "VALUE"
                },
                "preemcoef": {
                    "data": null,
                    "type": "VALUE"
                },
                "use_power": {
                    "data": false,
                    "type": "VALUE"
                }
            },
            "outputs": [
                {
                    "id": "produce"
                }
            ],
            "primitive": {     
                "id": "a184a1d1-3187-4d1f-99c6-e1d5665c2c99",
                "name": "MFCC Feature Extraction",
                "python_path": "d3m.primitives.feature_extraction.signal_mfcc.SignalMFCC",
                "version": "0.1.4"
            },
            "type": "PRIMITIVE"
        },
        {
            "arguments": {
                "inputs": {
                    "data": "steps.7.produce",
                    "type": "CONTAINER"
                }
            },
            "hyperparams": {
                "seg_len": {
                    "data": 10,
                    "type": "VALUE"
                },
                "seg_shift": {
                    "data": null,
                    "type": "VALUE"
                }
            },
            "outputs": [
                {
                    "id": "produce"
                }
            ],
            "primitive": { 
                "id": "2a6f820a-3943-4bb7-a580-689a91c338f3",
                "name": "Uniform Segmentation",
                "python_path": "d3m.primitives.time_series_segmentation.uniform_segmentation.UniformSegmentation",
                "version": "0.1.4"
            },
            "type": "PRIMITIVE"
        },
        {
            "arguments": {
                "inputs": {
                    "data": "steps.8.produce",
                    "type": "CONTAINER"
                }
            },
            "hyperparams": {
                "deg": {
                    "data": 2,
                    "type": "VALUE"
                }
            },
            "outputs": [
                {
                    "id": "produce"
                }
            ],
            "primitive": { 
                "id": "7c1d88a3-2388-4ba8-97c6-aa0aa2673024",
                "name": "Segment Curve Fitter",
                "python_path": "d3m.primitives.data_transformation.segment_curve_fitter.SegmentCurveFitter",
                "version": "0.1.4"
            },
            "type": "PRIMITIVE"
        },
        {
            "arguments": {
                "inputs": {
                    "data": "steps.9.produce",
                    "type": "CONTAINER"
                }
            },
            "hyperparams": {
                "max_iter": {
                    "data": 300,
                    "type": "VALUE"
                },
                "n_clusters": {
                    "data": 256,
                    "type": "VALUE"
                },
                "n_init": {
                    "data": 10,
                    "type": "VALUE"
                }
            },
            "outputs": [
                {
                    "id": "produce"
                }
            ],
            "primitive": { 
                "id": "b358a1fd-8bf8-4991-935f-2f1806dae54d",
                "name": "Clustering for Curve Fitting",
                "python_path": "d3m.primitives.clustering.cluster_curve_fitting_kmeans.ClusterCurveFittingKMeans",
                "version": "0.1.4"
            },
            "type": "PRIMITIVE"
        },
        {
            "arguments": {
                "inputs": {
                    "data": "steps.10.produce",
                    "type": "CONTAINER"
                }
            },
            "hyperparams": {
                "flatten_output": {
                    "data": false,
                    "type": "VALUE"
                },
                "frame_length_s": {
                    "data": 1,
                    "type": "VALUE"
                },
                "frame_shift_s": {
                    "data": 1,
                    "type": "VALUE"
                }
            },
            "outputs": [
                {
                    "id": "produce"
                }
            ],
            "primitive": { 
                "id": "4d7160ef-ca70-4150-b513-36b90817ba45",
                "name": "Signal Framing",
                "python_path": "d3m.primitives.time_series_segmentation.signal_framer.SignalFramer",
                "version": "0.1.4"
            },
            "type": "PRIMITIVE"
        },
        {
            "arguments": {
                "inputs": {
                    "data": "steps.11.produce",
                    "type": "CONTAINER"
                }
            },
            "outputs": [
                {
                    "id": "produce"
                }
            ],
            "primitive": { 
                "id": "bdcceba0-b6bd-4611-92de-225e3353f07d",
                "name": "Sequence to Bag-of-Tokens transformer",
                "python_path": "d3m.primitives.data_transformation.sequence_to_bag_of_tokens.SequenceToBagOfTokens",
                "version": "0.1.4"
            },
            "type": "PRIMITIVE"
        },
        {
            "arguments": {
                "inputs": {
                    "data": "steps.12.produce",
                    "type": "CONTAINER"
                }
            },
            "hyperparams": {
                "norm": {
                    "data": "l2",
                    "type": "VALUE"
                },
                "smooth_idf": {
                    "data": true,
                    "type": "VALUE"
                },
                "sublinear_tf": {
                    "data": true,
                    "type": "VALUE"
                },
                "use_idf": {
                    "data": true,
                    "type": "VALUE"
                }
            },
            "outputs": [
                {
                    "id": "produce"
                }
            ],
            "primitive": { 
                "id": "fefcb78f-c2f5-4557-a23b-0910b2127769",
                "name": "Tfidf Transformer",
                "python_path": "d3m.primitives.feature_extraction.tfidf_vectorizer.BBNTfidfTransformer",
                "version": "0.1.4"
            },
            "type": "PRIMITIVE"
        },
        {
            "arguments": {
                "inputs": {
                    "data": "steps.13.produce",
                    "type": "CONTAINER"
                },
                "outputs": {
                    "data": "steps.2.produce",
                    "type": "CONTAINER"
                }
            },
            "hyperparams": {
                "use_semantic_types": {
                    "type": "VALUE",
                    "data": true
                },
                "return_result": {
                    "type": "VALUE",
                    "data": "replace"
                },
                "C": {
                    "type": "VALUE",
                    "data": 0.1
                }
            },
            "outputs": [
                {
                    "id": "produce"
                }
            ],
            "primitive": {
                "id": "71749b20-80e9-3a8e-998e-25da5bbc1abc",
                "name": "sklearn.svm.classes.LinearSVC",
                "python_path": "d3m.primitives.classification.linear_svc.SKlearn",
                "version": "2019.4.4"
            },
            "type": "PRIMITIVE"
        },
        {
            "arguments": {
                "inputs": {
                    "data": "steps.14.produce",
                    "type": "CONTAINER"
                },
                "reference": {
                    "data": "steps.1.produce",
                    "type": "CONTAINER"
                }
            },
            "outputs": [
                {
                    "id": "produce"
                }
            ],
            "primitive": { 
                "id": "8d38b340-f83f-4877-baaa-162f8e551736",
                "name": "Construct pipeline predictions output",
                "python_path": "d3m.primitives.data_transformation.construct_predictions.DataFrameCommon",
                "version": "0.3.0"
            },
            "type": "PRIMITIVE"
        }
    ]
}
